^C:\USERS\CAMER\SOURCE\REPOS\GLITCHBLOCK\SRC\BLOCK.CPP
/c /I"F:\CLIBS\VCPKG\INSTALLED\X64-WINDOWS\INCLUDE" /Zi /nologo /W1 /WX- /diagnostics:column /O2 /Gm- /EHsc /MD /GS /fp:precise /Zc:wchar_t /Zc:forScope /Zc:inline /Fo"X64\RELEASE\\" /Fd"X64\RELEASE\VC142.PDB" /Gd /TP /FC C:\USERS\CAMER\SOURCE\REPOS\GLITCHBLOCK\SRC\BLOCK.CPP
^C:\USERS\CAMER\SOURCE\REPOS\GLITCHBLOCK\SRC\DRAW.CPP
/c /I"F:\CLIBS\VCPKG\INSTALLED\X64-WINDOWS\INCLUDE" /Zi /nologo /W1 /WX- /diagnostics:column /O2 /Gm- /EHsc /MD /GS /fp:precise /Zc:wchar_t /Zc:forScope /Zc:inline /Fo"X64\RELEASE\\" /Fd"X64\RELEASE\VC142.PDB" /Gd /TP /FC C:\USERS\CAMER\SOURCE\REPOS\GLITCHBLOCK\SRC\DRAW.CPP
^C:\USERS\CAMER\SOURCE\REPOS\GLITCHBLOCK\SRC\PLAYER.CPP
/c /I"F:\CLIBS\VCPKG\INSTALLED\X64-WINDOWS\INCLUDE" /Zi /nologo /W1 /WX- /diagnostics:column /O2 /Gm- /EHsc /MD /GS /fp:precise /Zc:wchar_t /Zc:forScope /Zc:inline /Fo"X64\RELEASE\\" /Fd"X64\RELEASE\VC142.PDB" /Gd /TP /FC C:\USERS\CAMER\SOURCE\REPOS\GLITCHBLOCK\SRC\PLAYER.CPP
^C:\USERS\CAMER\SOURCE\REPOS\GLITCHBLOCK\SRC\MAIN.CPP
/c /I"F:\CLIBS\VCPKG\INSTALLED\X64-WINDOWS\INCLUDE" /Zi /nologo /W1 /WX- /diagnostics:column /O2 /Gm- /EHsc /MD /GS /fp:precise /Zc:wchar_t /Zc:forScope /Zc:inline /Fo"X64\RELEASE\\" /Fd"X64\RELEASE\VC142.PDB" /Gd /TP /FC C:\USERS\CAMER\SOURCE\REPOS\GLITCHBLOCK\SRC\MAIN.CPP
